<?xml version="1.0" encoding="UTF-8" standalone="no"?>
<!-- Generator: Adobe Illustrator 23.0.0, SVG Export Plug-In . SVG Version: 6.00 Build 0)  -->

<svg
   xmlns:dc="http://purl.org/dc/elements/1.1/"
   xmlns:cc="http://creativecommons.org/ns#"
   xmlns:rdf="http://www.w3.org/1999/02/22-rdf-syntax-ns#"
   xmlns:svg="http://www.w3.org/2000/svg"
   xmlns="http://www.w3.org/2000/svg"
   xmlns:xlink="http://www.w3.org/1999/xlink"
   xmlns:sodipodi="http://sodipodi.sourceforge.net/DTD/sodipodi-0.dtd"
   xmlns:inkscape="http://www.inkscape.org/namespaces/inkscape"
   version="1.1"
   id="Ebene_1"
   x="0px"
   y="0px"
   viewBox="0 0 1500 500"
   xml:space="preserve"
   sodipodi:docname="B&amp;B_Header.svg"
   inkscape:version="0.92.3 (2405546, 2018-03-11)"
   inkscape:export-filename="/home/mac/Documents/Desktop/Logo-Bits-und-Baeume/B&amp;B_Header.png"
   inkscape:export-xdpi="299.90399"
   inkscape:export-ydpi="299.90399"
   width="1500"
   height="500"><metadata
   id="metadata49"><rdf:RDF><cc:Work
       rdf:about=""><dc:format>image/svg+xml</dc:format><dc:type
         rdf:resource="http://purl.org/dc/dcmitype/StillImage" /><dc:title></dc:title></cc:Work></rdf:RDF></metadata><defs
   id="defs47" /><sodipodi:namedview
   pagecolor="#ffffff"
   bordercolor="#666666"
   borderopacity="1"
   objecttolerance="10"
   gridtolerance="10"
   guidetolerance="10"
   inkscape:pageopacity="0"
   inkscape:pageshadow="2"
   inkscape:window-width="1920"
   inkscape:window-height="1015"
   id="namedview45"
   showgrid="false"
   inkscape:snap-text-baseline="true"
   inkscape:measure-start="0,0"
   inkscape:measure-end="0,0"
   inkscape:zoom="0.5546875"
   inkscape:cx="600.45456"
   inkscape:cy="272.80552"
   inkscape:window-x="1920"
   inkscape:window-y="36"
   inkscape:window-maximized="1"
   inkscape:current-layer="g20" />
<style
   type="text/css"
   id="style2">
	.st0{clip-path:url(#SVGID_2_);fill:#1D1D1B;}
	.st1{fill:#A1C854;}
	.st2{clip-path:url(#SVGID_4_);fill:#C1D98D;}
</style>





<g
   id="g42"
   transform="translate(0,-268)"
   style="display:none">
	<defs
   id="defs37">
		<rect
   id="SVGID_5_"
   x="69"
   y="65.699997"
   width="893.91998"
   height="653.29999" />
	</defs>
	<clipPath
   id="SVGID_6_">
		<use
   xlink:href="#SVGID_5_"
   style="overflow:visible"
   id="use39"
   x="0"
   y="0"
   width="100%"
   height="100%" />
	</clipPath>
</g><g
   inkscape:groupmode="layer"
   id="layer2"
   inkscape:label="Background"
   transform="translate(0,-268)"
   style="display:inline"><rect
     style="display:inline;fill:#f9f9f9;stroke-width:3.34289265"
     id="rect937"
     width="1496.338"
     height="501.18311"
     x="0.13654514"
     y="266.76529"
     inkscape:export-xdpi="300"
     inkscape:export-ydpi="300" /></g><g
   inkscape:groupmode="layer"
   id="layer1"
   inkscape:label="Logo &amp; Text"
   style="display:inline"
   transform="translate(0,-268)"><g
     id="g20"
     transform="matrix(0.67725043,0,0,0.70292684,200.92796,307.10547)"
     inkscape:export-xdpi="299.99466"
     inkscape:export-ydpi="299.99466"
     style="fill:#333333">
	<defs
   id="defs5">
		<rect
   id="SVGID_1_"
   x="69"
   y="65.699997"
   width="893.91998"
   height="653.29999" />
	</defs>
	<clipPath
   id="SVGID_2_">
		<use
   xlink:href="#SVGID_1_"
   style="overflow:visible"
   id="use7"
   x="0"
   y="0"
   width="100%"
   height="100%" />
	</clipPath>
	
	
	
	
	
<text
   xml:space="preserve"
   style="font-style:normal;font-weight:normal;font-size:75.19837952px;line-height:1.25;font-family:sans-serif;letter-spacing:0px;word-spacing:0px;fill:#333333;fill-opacity:1;stroke:none;stroke-width:1.87995946"
   x="382.81558"
   y="128.38802"
   id="text862"
   inkscape:export-xdpi="299"
   inkscape:export-ydpi="299"><tspan
     sodipodi:role="line"
     id="tspan860"
     x="382.81558"
     y="128.38802"
     style="font-style:normal;font-variant:normal;font-weight:bold;font-stretch:normal;font-size:75.19837952px;font-family:sans-serif;-inkscape-font-specification:'sans-serif, Bold';font-variant-ligatures:normal;font-variant-caps:normal;font-variant-numeric:normal;font-feature-settings:normal;text-align:start;writing-mode:lr-tb;text-anchor:start;fill:#333333;stroke-width:1.87995946">Bits &amp; Bäume - Die Bewegung für</tspan></text>
<text
   xml:space="preserve"
   style="font-style:normal;font-weight:normal;font-size:176.77708435px;line-height:1.25;font-family:sans-serif;letter-spacing:0px;word-spacing:0px;fill:#333333;fill-opacity:1;stroke:none;stroke-width:4.41942692"
   x="373.40411"
   y="-88.877922"
   id="text858-7"
   inkscape:export-xdpi="299"
   inkscape:export-ydpi="299"><tspan
     sodipodi:role="line"
     id="tspan856-5"
     x="373.40411"
     y="70.35482"
     style="fill:#333333;stroke-width:4.41942692" /><tspan
     sodipodi:role="line"
     x="373.40411"
     y="291.32617"
     style="fill:#333333;stroke-width:4.41942692"
     id="tspan909">Digitalisierung </tspan><tspan
     sodipodi:role="line"
     x="373.40411"
     y="512.29755"
     style="fill:#333333;stroke-width:4.41942692"
     id="tspan903" /></text>
<text
   xml:space="preserve"
   style="font-style:normal;font-weight:normal;font-size:176.77708435px;line-height:1.25;font-family:sans-serif;letter-spacing:0px;word-spacing:0px;display:inline;fill:#333333;fill-opacity:1;stroke:none;stroke-width:4.41942692"
   x="380.79941"
   y="466.34756"
   id="text858-7-7"
   inkscape:export-xdpi="299"
   inkscape:export-ydpi="299"><tspan
     sodipodi:role="line"
     x="380.79941"
     y="466.34756"
     style="fill:#333333;stroke-width:4.41942692"
     id="tspan903-2">&amp; Nachhaltigkeit</tspan></text>
</g><rect
     x="251.50925"
     y="696.22552"
     class="st1"
     width="4.1051807"
     height="67.567116"
     id="rect22"
     style="fill:#a1c854;stroke-width:0.71643639"
     inkscape:export-xdpi="299.99466"
     inkscape:export-ydpi="299.99466" /><g
     id="g32"
     transform="matrix(0.71643639,0,0,0.71643639,88.383871,262.36601)"
     inkscape:export-xdpi="299.99466"
     inkscape:export-ydpi="299.99466">
	<defs
   id="defs25">
		<rect
   id="SVGID_3_"
   x="69"
   y="65.699997"
   width="893.91998"
   height="653.29999" />
	</defs>
	<clipPath
   id="SVGID_4_">
		<use
   xlink:href="#SVGID_3_"
   style="overflow:visible"
   id="use27"
   x="0"
   y="0"
   width="100%"
   height="100%" />
	</clipPath>
	<path
   class="st2"
   d="M 227.69,614.58 C 137.11,609.02 69,527.24 69,422.47 69,292.38 149.39,200.49 227.69,120.59 Z"
   clip-path="url(#SVGID_4_)"
   id="path30"
   inkscape:connector-curvature="0"
   style="fill:#c1d98d" />
</g><path
     class="st1"
     d="m 290.83446,545.37988 h 39.3252 v 39.3252 h -39.3252 z M 251.50928,388.07911 v 314.58722 h 39.32518 v -39.3252 h 39.3252 V 624.0231 h 39.3252 v -39.32519 h 39.3252 v -39.32518 h -39.3252 v -39.3252 h -39.3252 v -39.3252 h -39.3252 v -39.3252 h 39.3252 v 39.3252 h 39.3252 v -39.3252 h -39.3252 v -39.3252 h -78.65038 z m 78.64321,0 h 39.3252 v -39.3252 h -39.3252 z m -78.64321,-39.31803 h 39.32518 v -39.3252 h -39.32518 z m 117.96841,0 h 39.3252 v -39.3252 h -39.3252 z"
     id="path34"
     inkscape:connector-curvature="0"
     style="display:inline;fill:#a1c854;stroke-width:0.71643639"
     inkscape:export-xdpi="299.99466"
     inkscape:export-ydpi="299.99466" /></g></svg>