<?xml version="1.0" encoding="UTF-8" standalone="no"?>
<!-- Generator: Adobe Illustrator 23.0.0, SVG Export Plug-In . SVG Version: 6.00 Build 0)  -->

<svg
   xmlns:dc="http://purl.org/dc/elements/1.1/"
   xmlns:cc="http://creativecommons.org/ns#"
   xmlns:rdf="http://www.w3.org/1999/02/22-rdf-syntax-ns#"
   xmlns:svg="http://www.w3.org/2000/svg"
   xmlns="http://www.w3.org/2000/svg"
   xmlns:xlink="http://www.w3.org/1999/xlink"
   xmlns:sodipodi="http://sodipodi.sourceforge.net/DTD/sodipodi-0.dtd"
   xmlns:inkscape="http://www.inkscape.org/namespaces/inkscape"
   version="1.1"
   id="Ebene_1"
   x="0px"
   y="0px"
   viewBox="0 0 1024 768"
   style="enable-background:new 0 0 1024 768;"
   xml:space="preserve"
   sodipodi:docname="B&amp;B_Logo_RGB-leaf-only-no-text.svg"
   inkscape:version="0.92.3 (2405546, 2018-03-11)"
   inkscape:export-filename="/home/mac/Documents/Dev/bitsundbaeume/media/media-from-bitsundbaeume-website/B&amp;B_Logo_RGB-leaf-only-no-text.svg.png"
   inkscape:export-xdpi="605.49677"
   inkscape:export-ydpi="605.49677"><metadata
   id="metadata49"><rdf:RDF><cc:Work
       rdf:about=""><dc:format>image/svg+xml</dc:format><dc:type
         rdf:resource="http://purl.org/dc/dcmitype/StillImage" /><dc:title /></cc:Work></rdf:RDF></metadata><defs
   id="defs47" /><sodipodi:namedview
   pagecolor="#ffffff"
   bordercolor="#666666"
   borderopacity="1"
   objecttolerance="10"
   gridtolerance="10"
   guidetolerance="10"
   inkscape:pageopacity="0"
   inkscape:pageshadow="2"
   inkscape:window-width="484"
   inkscape:window-height="443"
   id="namedview45"
   showgrid="false"
   inkscape:zoom="0.78444658"
   inkscape:cx="502.49642"
   inkscape:cy="435.68716"
   inkscape:window-x="2268"
   inkscape:window-y="305"
   inkscape:window-maximized="0"
   inkscape:current-layer="Ebene_1" />
<style
   type="text/css"
   id="style2">
	.st0{clip-path:url(#SVGID_2_);fill:#1D1D1B;}
	.st1{fill:#A1C854;}
	.st2{clip-path:url(#SVGID_4_);fill:#C1D98D;}
</style>

<rect
   x="227.69"
   y="605.58"
   class="st1"
   width="5.73"
   height="94.31"
   id="rect22" />
<g
   id="g32">
	<defs
   id="defs25">
		<rect
   id="SVGID_3_"
   x="69"
   y="65.7"
   width="893.92"
   height="653.3" />
	</defs>
	<clipPath
   id="SVGID_4_">
		<use
   xlink:href="#SVGID_3_"
   style="overflow:visible;"
   id="use27" />
	</clipPath>
	<path
   class="st2"
   d="M227.69,614.58C137.11,609.02,69,527.24,69,422.47c0-130.09,80.39-221.98,158.69-301.88V614.58z"
   clip-path="url(#SVGID_4_)"
   id="path30" />
</g>
<path
   class="st1"
   d="M282.58,395.03h54.89v54.89h-54.89V395.03z M227.69,175.47v439.1h54.89v-54.89h54.89V504.8h54.89v-54.89h54.89  v-54.89h-54.89v-54.89h-54.89v-54.89h-54.89v-54.89h54.89v54.89h54.89v-54.89h-54.89v-54.89H227.69z M337.46,175.47h54.89v-54.89  h-54.89V175.47z M227.69,120.59h54.89V65.7h-54.89V120.59z M392.35,120.59h54.89V65.7h-54.89V120.59z"
   id="path34" />
<g
   id="g42">
	<defs
   id="defs37">
		<rect
   id="SVGID_5_"
   x="69"
   y="65.7"
   width="893.92"
   height="653.3" />
	</defs>
	<clipPath
   id="SVGID_6_">
		<use
   xlink:href="#SVGID_5_"
   style="overflow:visible;"
   id="use39" />
	</clipPath>
</g>
</svg>